 DensTot    1.7588046550674485E-003
 N0           2         126 Dens0   6.2500000979071046E-005   3.0899998341737955E-003 relat T
  0.19504290182050305       0.17700119490775090     
 uncalculable
 uncalculable
 uncalculable
 uncalculable
 uncalculable
 uncalculable
 uncalculable
 uncalculable
 uncalculable
 uncalculable
 uncalculable
 uncalculable
 uncalculable
 uncalculable
 uncalculable
 uncalculable
 uncalculable
 uncalculable
 uncalculable
 uncalculable
 uncalculable
 uncalculable
 uncalculable
 uncalculable
 uncalculable
 uncalculable
 uncalculable
 uncalculable
 uncalculable
 uncalculable
 uncalculable
 uncalculable
 uncalculable
 uncalculable
 uncalculable
 uncalculable
 uncalculable
 uncalculable
 uncalculable
 uncalculable
 uncalculable
 uncalculable
 uncalculable
 uncalculable
 uncalculable
 uncalculable
 uncalculable
 uncalculable
 uncalculable
 uncalculable
 uncalculable
 uncalculable
 uncalculable
 uncalculable
 uncalculable
 uncalculable
 uncalculable
 uncalculable
 uncalculable
 uncalculable
 uncalculable
 uncalculable
 uncalculable
 uncalculable
 uncalculable
 uncalculable
 uncalculable
 uncalculable
 uncalculable
 uncalculable
 uncalculable
 uncalculable
 uncalculable
 uncalculable
 uncalculable
 uncalculable
 uncalculable
 uncalculable
 uncalculable
 uncalculable
 uncalculable
 uncalculable
 uncalculable
 uncalculable
 uncalculable
 uncalculable
 uncalculable
 uncalculable
 uncalculable
 uncalculable
 uncalculable
 uncalculable
 uncalculable
 uncalculable
 uncalculable
 uncalculable
 uncalculable
 uncalculable
 uncalculable
 uncalculable
 uncalculable
 uncalculable
 uncalculable
 uncalculable
 uncalculable
 uncalculable
 uncalculable
 uncalculable
 uncalculable
 uncalculable
 uncalculable
 uncalculable
 uncalculable
 uncalculable
 uncalculable
 uncalculable
 uncalculable
 uncalculable
 uncalculable
 uncalculable
 uncalculable
 uncalculable
 uncalculable
 uncalculable
 uncalculable
 uncalculable
 uncalculable
 uncalculable
 uncalculable
 uncalculable
 uncalculable
 uncalculable
 uncalculable
 uncalculable
 uncalculable
 uncalculable
 uncalculable
 uncalculable
 uncalculable
 uncalculable
 uncalculable
 uncalculable
 uncalculable
 uncalculable
 uncalculable
 uncalculable
 uncalculable
 uncalculable
 uncalculable
 uncalculable
 uncalculable
 uncalculable
 uncalculable
 uncalculable
 uncalculable
 uncalculable
 uncalculable
 uncalculable
 uncalculable
 uncalculable
 uncalculable
 uncalculable
 uncalculable
 uncalculable
 uncalculable
 uncalculable
 uncalculable
 uncalculable
 uncalculable
 uncalculable
 uncalculable
 uncalculable
 uncalculable
 uncalculable
 uncalculable
 uncalculable
 uncalculable
 uncalculable
 uncalculable
 uncalculable
 uncalculable
 uncalculable
 uncalculable
 uncalculable
 uncalculable
 uncalculable
 uncalculable
 uncalculable
 uncalculable
 uncalculable
 uncalculable
 uncalculable
 uncalculable
 uncalculable
 uncalculable
 uncalculable
 uncalculable
 uncalculable
 uncalculable
 uncalculable
 uncalculable
 uncalculable
 uncalculable
 uncalculable
 uncalculable
 uncalculable
 uncalculable
 uncalculable
 uncalculable
 uncalculable
 uncalculable
 uncalculable
 uncalculable
 uncalculable
 uncalculable
 uncalculable
 uncalculable
 uncalculable
 uncalculable
 uncalculable
 uncalculable
 uncalculable
 uncalculable
 uncalculable
 uncalculable
 uncalculable
 uncalculable
 uncalculable
 uncalculable
 uncalculable
 uncalculable
 uncalculable
 uncalculable
 uncalculable
 uncalculable
 uncalculable
 uncalculable
 uncalculable
 uncalculable
 uncalculable
 uncalculable
 uncalculable
 uncalculable
 uncalculable
 uncalculable
 uncalculable
 uncalculable
 uncalculable
 uncalculable
 uncalculable
 uncalculable
 uncalculable
 uncalculable
 uncalculable
 uncalculable
 uncalculable
 uncalculable
 uncalculable
 uncalculable
 uncalculable
 uncalculable
 uncalculable
 uncalculable
 uncalculable
 uncalculable
 uncalculable
 uncalculable
 uncalculable
 uncalculable
 uncalculable
 uncalculable
 uncalculable
 uncalculable
 uncalculable
 uncalculable
 uncalculable
 uncalculable
 uncalculable
 uncalculable
 uncalculable
